MCC;MNC3;Operateur;Statut;Bandes de Frequence
208;1;Orange;Operationnel;GSM 900 / GSM 1800 / UMTS 900 / UMTS 2100 / LTE
208;2;Orange;Operationnel;GSM 900, UMTS
208;3;MobiquiThings;Operationnel;GSM, UMTS, satellite
208;4;Sisteer (MVNE);Operationnel;UMTS, LTE
208;5;Globalstar Europe;Operationnel;Satellite
208;6;Globalstar Europe;Operationnel;Satellite
208;7;Globalstar Europe;Operationnel;Satellite
208;8;SFR (achat de Completel);Operationnel;GSM, UMTS, LTE
208;9;SFR;?;ex: Neuf Telecom
208;10;SFR;Operationnel;GSM 900 / GSM 1800 / UMTS 900 / UMTS 2100 / LTE
208;11;SFR;Operationnel;UMTS 2100
208;12;Hewlett-Packard France;?;MVNO
208;13;SFR;Operationnel;GSM 900 / GSM 1800 / UMTS 900 / UMTS 2100
208;14;RFF;Operationnel;GSM-R
208;15;Free mobile;Operationnel;UMTS 900 / UMTS 2100 / LTE
208;16;Free mobile;Operationnel;LTE
208;17;Legos (MVNO)7;Operationnel;GSM, UMTS, LTE
208;18;Voxbone;Operationnel;GSM, UMTS, LTE
208;19;Altitude infrastructure;?;GSM, UMTS, LTE
208;20;Bouygues Telecom;Operationnel;GSM 900 / GSM 1800 / UMTS 900 / UMTS 2100 / LTE
208;21;Bouygues Telecom;Operationnel;
208;22;Transatel (MVNE);Operationnel;GSM, UMTS, LTE
208;23;Omea Telecom (MVNO);Operationnel;GSM, UMTS, LTE
208;24;MobiquiThings (MVNO/MVNE);Operationnel;GSM, UMTS, Satellite
208;25;Lycamobile (MVNO);Operationnel;GSM, UMTS, LTE
208;26;EI Telecom (MVNO);Operationnel;GSM, UMTS, LTE
208;27;Coriolis Télécom;Operationnel;GSM, UMTS, LTE
208;28;Airbus defence and space;Inconnu;Satellite
208;29;International Mobile Communication;disparu;UMTS
208;30;Symacom (MVNO);Operationnel;GSM, UMTS, LTE
208;31;Mundio Mobile (MVNE);Operationnel;GSM, UMTS, LTE
208;35;Free mobile;Operationnel;NR
208;88;Bouygues Telecom;Operationnel;GSM 900 /1800, UMTS
208;89;Fondation b-com;inconnu;UMTS, LTE
208;90;Association Images & Réseaux;?;LTE
208;91;Orange;?;LTE
208;92;;?;LTE
208;93;Thales communications;?;LTE
208;94;Halys;En test;GSM, LTE
208;95;Orange;?;LTE-TDD
208;96;Axione;Pilote;Test TDD-LTE (RIP)
208;97;Thales communications;?;?
208;98;Air France;?;?
